<?xml version="1.0" encoding="utf-8"?>
<svg version="1.1" id="Layer_1" xmlns="http://www.w3.org/2000/svg" xmlns:xlink="http://www.w3.org/1999/xlink" x="0px" y="0px"
	 viewBox="0 0 253.3 105" style="enable-background:new 0 0 253.3 105;" xml:space="preserve">
<style type="text/css">
	.st0{fill:#09b298;}
</style>
<path class="st0" d="M82.3,27.5c0.1-0.1,0.2-0.1,0.4-0.2c0,13.9,0,27.8,0,41.6c-0.3,0.2-0.5-0.1-0.7-0.2c-4-2.3-8-4.6-12-6.9
	c-0.5-0.3-0.7-0.7-0.7-1.3c0-4.9,0-9.7,0-14.6c-0.5-0.1-0.7,0.2-1,0.4c-3.8,2.2-7.6,4.4-11.5,6.6c-0.7,0.3-1,0.7-0.9,1.5
	c0.1,0.7,0,1.5,0,2.4c3.5-2,6.8-3.9,10.1-5.8c0.3,0.3,0.2,0.5,0.2,0.8c0,2.9,0,5.8,0,8.7c0,0.6-0.1,1-0.7,1.3
	c-6.4,3.7-12.8,7.3-19.1,11c-0.8,0.4-1,0.5-1-0.5c0-7.6,0-15.2,0-22.8c0-0.5,0.1-0.9,0.6-1.2C58.1,41.3,70.2,34.4,82.3,27.5z
	 M66.9,64.3c-6.3,3.7-12.6,7.4-19,10.9c-2,1.1-2.7,2.3-2.6,4.5c0.2,4,0.1,8.1,0.1,12.2c1.1-0.3,34.9-19.9,35.5-20.5
	c-4.1-2.4-8.2-4.7-12.2-7.1C68,63.9,67.6,63.9,66.9,64.3z M50.6,5.2c-2.3-1.3-4.6-2.5-6.8-4c-0.1,0-0.3,0-0.4,0
	c0,0.3,0.1,0.7,0.1,1.1c0,4.2,0,8.5,0,12.7c-0.1,0.8,0.2,1.2,0.9,1.6c6.5,3.7,12.9,7.5,19.4,11.2c0.3,0.2,0.7,0.3,0.9,0.7
	c-0.6,0.4-1.2,0.7-1.8,1.1c-0.7,0.5-1.3,0.4-2,0c-6-3.6-12.1-7.1-18.2-10.6c-0.6-0.4-1-0.5-1.6-0.1C34.8,22.6,28.4,26.3,22,30
	c-0.5,0.3-1,0.6-1.7,1c0.5,0.3,0.8,0.5,1.2,0.7c4.7,2.7,9.3,5.3,13.9,8.1c1.5,0.9,2.7,1,4-0.1c0.4-0.4,1-0.6,1.5-0.9
	c2.3-1.3,4.6-2.6,7-4c-2.6-1.5-5.1-3-7.8-4.5c1-0.6,1.8-1,2.6-1.5c0.3-0.2,0.5-0.1,0.8,0c3.4,2,6.8,4,10.3,6
	c-0.3,0.2-0.4,0.3-0.6,0.4c-5,3-10.1,5.9-15.1,8.8c-0.5,0.3-0.9,0.2-1.4-0.1c-5.7-3.3-11.5-6.7-17.3-10c-0.4-0.2-0.6-0.5-1.1-0.4
	c0,0.1,0,0.3,0,0.4c0,8.9,0,17.8,0,26.7c0,0.7,0.3,0.9,0.8,1.2c4.8,2.8,9.5,5.5,14.2,8.2c0.3,0.2,0.6,0.5,1.1,0.4c0-4,0-7.9,0-11.9
	c0-0.6-0.2-0.8-0.6-1c-1.7-0.9-3.3-2-5-2.8c-1.6-0.8-2.2-1.8-2-3.6c0.1-1,0.3-0.9,1-0.5c3,1.8,6,3.5,9,5.2c0.6,0.4,0.8,0.8,0.8,1.5
	c0,5.8,0,11.6,0,17.4c0,0.3,0,0.6,0,1c-0.5-0.3-1-0.5-1.4-0.8c-6.2-3.6-12.3-7.1-18.5-10.7c-0.6-0.3-1-0.4-1.6,0
	c-2.6,1.5-5.2,3-7.8,4.5c-1.6,0.9-3.1,1.8-4.8,2.8c13,7.5,25.8,14.9,38.8,22.4c0-0.7,0-1.1,0-1.5c0-14.7,0-29.5,0-44.2
	c0-0.8,0.3-1.3,1-1.7C56.1,39.1,69,31.7,81.8,24.3c0.3-0.2,0.6-0.4,1-0.6c-0.3-0.2-0.5-0.4-0.7-0.5C71.7,17.2,61.3,11.2,50.6,5.2z
	 M15.3,60.4c0-9.4,0-18.8,0-28.1c0-0.6-0.2-0.9-0.7-1.2c-4.3-2.5-8.6-4.9-12.9-7.4c0,15.1,0,30.2,0,45.3c0.1,0,0.1,0,0.2,0
	c4.3-2.5,8.6-5,12.9-7.4C15.3,61.2,15.3,60.8,15.3,60.4z M5.7,22.5c3.7,2.1,7.4,4.2,11.1,6.4c0.7,0.4,1.1,0.4,1.8,0
	c7.1-4.1,14.2-8.2,21.3-12.3c0.6-0.4,0.9-0.7,0.9-1.5c0-4.7,0-9.3,0-14c-0.1,0-0.3,0-0.4,0c-0.2,0.4-0.6,0.5-0.9,0.6
	c-10.3,6-20.6,12-30.9,17.9c-1.3,0.7-2.5,1.5-3.8,2.2C5.1,22.2,5.4,22.3,5.7,22.5z M135.4,59.6c-3.2,0-6.4,0-9.6,0c-2.5,0-5,0-7.5,0
	c-3.8,0-3.7,0-3.7,3.7c0,1.5,0.4,2,1.9,1.9c4.1-0.1,8.3,0.1,12.4-0.1c1.9-0.1,2.1,0.6,1.8,2.2c-1.8,8.8-10.5,14.5-19.4,12.5
	C100.6,77.5,94.3,66.1,98,55.4c2.4-7.2,7.5-11.6,15.1-12.3c6.5-0.6,11.7,2.1,15.2,7.6c1.1,1.7,2.2,2.6,4.2,2.3
	c0.6-0.1,1.1-0.1,1.7,0c1.4,0.1,1.5-0.4,1-1.6c-4-10.2-15.2-16-26-13.4c-12.5,3-20,15.2-17.6,28.6c3,17.1,23.6,25.2,37,14.4
	c6.4-5.2,8.3-12.3,8.2-20.2C136.9,59.6,136.2,59.6,135.4,59.6z M186.6,59.6c-3.2,0-6.4,0-9.6,0c-2.5,0-5,0-7.5,0
	c-3.8,0-3.7,0-3.7,3.7c0,1.5,0.4,2,1.9,1.9c4.1-0.1,8.3,0.1,12.4-0.1c1.9-0.1,2.1,0.6,1.8,2.2c-1.8,8.8-10.5,14.5-19.4,12.5
	c-10.6-2.3-16.9-13.7-13.2-24.5c2.4-7.2,7.5-11.6,15.1-12.3c6.5-0.6,11.7,2.1,15.2,7.6c1.1,1.7,2.2,2.6,4.2,2.3
	c0.6-0.1,1.1-0.1,1.7,0c1.4,0.1,1.5-0.4,1-1.6c-4-10.2-15.2-16-26-13.4c-12.5,3-20,15.2-17.6,28.6c3,17.1,23.6,25.2,37,14.4
	c6.4-5.2,8.3-12.3,8.2-20.2C188.1,59.6,187.4,59.6,186.6,59.6z M237.8,59.6c-3.2,0-6.4,0-9.6,0c-2.5,0-5,0-7.5,0
	c-3.8,0-3.7,0-3.7,3.7c0,1.5,0.4,2,1.9,1.9c4.1-0.1,8.3,0.1,12.4-0.1c1.9-0.1,2.1,0.6,1.8,2.2c-1.8,8.8-10.5,14.5-19.4,12.5
	c-10.6-2.3-16.9-13.7-13.2-24.5c2.4-7.2,7.5-11.6,15.1-12.3c6.5-0.6,11.7,2.1,15.2,7.6c1.1,1.7,2.2,2.6,4.2,2.3
	c0.6-0.1,1.1-0.1,1.7,0c1.4,0.1,1.5-0.4,1-1.6c-4-10.2-15.2-16-26-13.4c-12.5,3-20,15.2-17.6,28.6c3,17.1,23.6,25.2,37,14.4
	c6.4-5.2,8.3-12.3,8.2-20.2C239.3,59.6,238.7,59.6,237.8,59.6z M250.7,42.2c0-3.9,0-3.7-3.9-3.9c-1.8,0-2.1,0.6-2.1,2.3
	c0,7,0,13.9,0,21.1c0,6.6,0,13.1,0,19.7c0,3.7,0,3.5,3.7,3.7c1.8,0,2.3-0.6,2.3-2.3C250.5,69.3,250.7,55.8,250.7,42.2z"/>
</svg>
